ISSS626-GAA - In-class Exercise 6
…
6.4.4 Performing Emerging Hotspot Analysis

set.seed(1234)
ehsa <- emerging_hotspot_analysis(
  x = GDPPC_st,
  .var = "GDPPC",
  k = 1,
  nsim =99
)

ehsa

# A tibble: 88 × 4
   location     tau    p_value classification     
   <chr>      <dbl>      <dbl> <chr>              
 1 Anxiang    0.221 0.232      sporadic coldspot  
 2 Hanshou    0.147 0.434      sporadic hotspot   
 3 Jinshi     0.441 0.0151     oscilating hotspot 
 4 Li        -0.824 0.00000482 sporadic coldspot  
 5 Linli      0.118 0.537      oscilating hotspot 
 6 Shimen    -0.471 0.00946    oscilating coldspot
 7 Liuyang    0.868 0.00000143 sporadic hotspot   
 8 Ningxiang -0.559 0.00201    sporadic coldspot  
 9 Wangcheng -0.162 0.387      sporadic coldspot  
10 Anren      0.456 0.0120     sporadic coldspot  
# ℹ 78 more rows
…
