ISSS626-GAA - Take-home Exercise 2
…
We take a more detailed look by determining the unique provinces represented in the data and their corresponding regions. This step aims to check for two things:

whether there are any duplicate data entries i.e. entries that are meant to represent the same province but have spelling errors.

whether the regions for the provinces are accurately indicated

tourism_unique <- tourism %>%
  select(province_eng,region_eng) %>%
  distinct() %>%
  arrange(region_eng,province_eng)

tourism_unique

# A tibble: 77 × 2
   province_eng             region_eng
   <chr>                    <chr>     
 1 Ang Thong                central   
 2 Bangkok                  central   
 3 Chainat                  central   
 4 Kanchanaburi             central   
 5 Lopburi                  central   
 6 Nakhon Pathom            central   
 7 Nonthaburi               central   
 8 Pathum Thani             central   
 9 Phetchaburi              central   
10 Phra Nakhon Si Ayutthaya central   
# ℹ 67 more rows
…
5.1.2.5.2 Checking the revenue figures

Based on the definition of the different variable types, we note that “revenue_all” should equal to the sum of “revenue_foreign” and “revenue_thai”. We check through the data using the code chunk below:

revenue_numbers <- tourism_wider %>%
  group_by(province_eng,year_month) %>%
  summarise(
    sum_revenue = sum(revenue_foreign, revenue_thai, na.rm = TRUE),
  revenue_all = sum(revenue_all,na.rm = TRUE),
            .groups = "drop") %>%
  mutate(is_rev_equal = sum_revenue == revenue_all)

revenue_numbers

# A tibble: 3,850 × 5
   province_eng  year_month sum_revenue revenue_all is_rev_equal
   <chr>         <date>           <dbl>       <dbl> <lgl>       
 1 Amnat Charoen 2019-01-01    34510000    34510000 TRUE        
 2 Amnat Charoen 2019-02-01    32290000    32290000 TRUE        
 3 Amnat Charoen 2019-03-01    39070000    39070000 TRUE        
 4 Amnat Charoen 2019-04-01    32040000    32040000 TRUE        
 5 Amnat Charoen 2019-05-01    30110000    30110000 TRUE        
 6 Amnat Charoen 2019-06-01    26630000    26630000 TRUE        
 7 Amnat Charoen 2019-07-01    21680000    21680000 TRUE        
 8 Amnat Charoen 2019-08-01    17700000    17700000 TRUE        
 9 Amnat Charoen 2019-09-01    19500000    19500000 TRUE        
10 Amnat Charoen 2019-10-01    61440000    61440000 TRUE        
# ℹ 3,840 more rows
…
5.1.2.5.3 Checking the tourist numbers

Similarly, based on the definition of the different variable types, we note that “no_tourist_all” should equal to the sum of “no_tourist_foreign” and “no_tourist_thai”. We check through the data using the code chunk below:

tourism_numbers <- tourism_wider %>%
  group_by(province_eng,year_month) %>%
  summarise(
    sum_tourists = sum(no_tourist_foreign, no_tourist_thai, na.rm = TRUE),
  tourists_all = sum(no_tourist_all,na.rm = TRUE),
            .groups = "drop") %>%
  mutate(is_touristno_equal = sum_tourists == tourists_all)

tourism_numbers

# A tibble: 3,850 × 5
   province_eng  year_month sum_tourists tourists_all is_touristno_equal
   <chr>         <date>            <dbl>        <dbl> <lgl>             
 1 Amnat Charoen 2019-01-01        21790        21790 TRUE              
 2 Amnat Charoen 2019-02-01        20377        20377 TRUE              
 3 Amnat Charoen 2019-03-01        24786        24786 TRUE              
 4 Amnat Charoen 2019-04-01        23792        23792 TRUE              
 5 Amnat Charoen 2019-05-01        22436        22436 TRUE              
 6 Amnat Charoen 2019-06-01        19714        19714 TRUE              
 7 Amnat Charoen 2019-07-01        20517        20517 TRUE              
 8 Amnat Charoen 2019-08-01        16708        16708 TRUE              
 9 Amnat Charoen 2019-09-01        18453        18453 TRUE              
10 Amnat Charoen 2019-10-01        39242        39242 TRUE              
# ℹ 3,840 more rows
…
